{
  "pokemons": {
    "count": 1118,
    "next": "https://pokeapi.co/api/v2/pokemon/?offset=10&limit=10",
    "previous": null,
    "status": true,
    "message": "",
    "results": [
      {
        "url": "https://pokeapi.co/api/v2/pokemon/1/",
        "name": "bulbasaur",
        "image": "https://raw.githubusercontent.com/PokeAPI/sprites/master/sprites/pokemon/1.png",
        "id": 1
      },
      {
        "url": "https://pokeapi.co/api/v2/pokemon/2/",
        "name": "ivysaur",
        "image": "https://raw.githubusercontent.com/PokeAPI/sprites/master/sprites/pokemon/2.png",
        "id": 2
      },
      {
        "url": "https://pokeapi.co/api/v2/pokemon/3/",
        "name": "venusaur",
        "image": "https://raw.githubusercontent.com/PokeAPI/sprites/master/sprites/pokemon/3.png",
        "id": 3
      },
      {
        "url": "https://pokeapi.co/api/v2/pokemon/4/",
        "name": "charmander",
        "image": "https://raw.githubusercontent.com/PokeAPI/sprites/master/sprites/pokemon/4.png",
        "id": 4
      },
      {
        "url": "https://pokeapi.co/api/v2/pokemon/5/",
        "name": "charmeleon",
        "image": "https://raw.githubusercontent.com/PokeAPI/sprites/master/sprites/pokemon/5.png",
        "id": 5
      },
      {
        "url": "https://pokeapi.co/api/v2/pokemon/6/",
        "name": "charizard",
        "image": "https://raw.githubusercontent.com/PokeAPI/sprites/master/sprites/pokemon/6.png",
        "id": 6
      },
      {
        "url": "https://pokeapi.co/api/v2/pokemon/7/",
        "name": "squirtle",
        "image": "https://raw.githubusercontent.com/PokeAPI/sprites/master/sprites/pokemon/7.png",
        "id": 7
      },
      {
        "url": "https://pokeapi.co/api/v2/pokemon/8/",
        "name": "wartortle",
        "image": "https://raw.githubusercontent.com/PokeAPI/sprites/master/sprites/pokemon/8.png",
        "id": 8
      },
      {
        "url": "https://pokeapi.co/api/v2/pokemon/9/",
        "name": "blastoise",
        "image": "https://raw.githubusercontent.com/PokeAPI/sprites/master/sprites/pokemon/9.png",
        "id": 9
      },
      {
        "url": "https://pokeapi.co/api/v2/pokemon/10/",
        "name": "caterpie",
        "image": "https://raw.githubusercontent.com/PokeAPI/sprites/master/sprites/pokemon/10.png",
        "id": 10
      }
    ]
  }
}
